\relax 
\providecommand\hyper@newdestlabel[2]{}
\providecommand*\new@tpo@label[2]{}
\providecommand\babel@aux[2]{}
\@nameuse{bbl@beforestart}
\catcode `"\active 
\catcode `-\active 
\providecommand\HyperFirstAtBeginDocument{\AtBeginDocument}
\HyperFirstAtBeginDocument{\ifx\hyper@anchor\@undefined
\global\let\oldcontentsline\contentsline
\gdef\contentsline#1#2#3#4{\oldcontentsline{#1}{#2}{#3}}
\global\let\oldnewlabel\newlabel
\gdef\newlabel#1#2{\newlabelxx{#1}#2}
\gdef\newlabelxx#1#2#3#4#5#6{\oldnewlabel{#1}{{#2}{#3}}}
\AtEndDocument{\ifx\hyper@anchor\@undefined
\let\contentsline\oldcontentsline
\let\newlabel\oldnewlabel
\fi}
\fi}
\global\let\hyper@last\relax 
\gdef\HyperFirstAtBeginDocument#1{#1}
\providecommand\HyField@AuxAddToFields[1]{}
\providecommand\HyField@AuxAddToCoFields[2]{}
\providecommand\BKM@entry[2]{}
\bibstyle{plain}
\BKM@entry{id=1,dest={73656374696F6E2E31},srcline={48}}{5C3337365C3337375C3030305C3333325C303030765C3030306F5C30303064}
\BKM@entry{id=2,dest={73656374696F6E2E32},srcline={61}}{5C3337365C3337375C3030304E5C303030655C303030755C303030725C3030306F5C303030655C303030765C3030306F5C3030306C5C303030755C303030635C30303065}
\BKM@entry{id=3,dest={73656374696F6E2E33},srcline={75}}{5C3337365C3337375C303030425C3030315C3033335C303030685C3030305C3034305C303030705C303030725C3030306F5C303030675C303030725C303030615C3030306D5C30303075}
\BKM@entry{id=4,dest={73656374696F6E2E34},srcline={91}}{5C3337365C3337375C303030495C3030306D5C303030705C3030306C5C303030655C3030306D5C303030655C3030306E5C303030745C303030615C303030635C30303065}
\providecommand\@newglossary[4]{}
\@newglossary{main}{glg}{gls}{glo}
\@newglossary{acronym}{alg}{acr}{acn}
\babel@aux{czech}{}
\providecommand\@gls@reference[3]{}
\@writefile{toc}{\contentsline {section}{\numberline {1}Úvod}{1}{section.1}\protected@file@percent }
\@gls@reference{acronym}{ann}{\glsnoidxdisplayloc{}{page}{glsnumberformat}{1}}
\@gls@reference{acronym}{ann}{\glsnoidxdisplayloc{}{page}{glsnumberformat}{1}}
\@gls@reference{acronym}{ga}{\glsnoidxdisplayloc{}{page}{glsnumberformat}{1}}
\@gls@reference{acronym}{ga}{\glsnoidxdisplayloc{}{page}{glsnumberformat}{1}}
\@gls@reference{acronym}{ann}{\glsnoidxdisplayloc{}{page}{glsnumberformat}{1}}
\@gls@reference{acronym}{ann}{\glsnoidxdisplayloc{}{page}{glsnumberformat}{1}}
\@gls@reference{acronym}{ann}{\glsnoidxdisplayloc{}{page}{glsnumberformat}{1}}
\@gls@reference{acronym}{ann}{\glsnoidxdisplayloc{}{page}{glsnumberformat}{1}}
\@writefile{toc}{\contentsline {section}{\numberline {2}Neuroevoluce}{1}{section.2}\protected@file@percent }
\@gls@reference{main}{ne}{\glsnoidxdisplayloc{}{page}{glsnumberformat}{1}}
\@gls@reference{acronym}{ga}{\glsnoidxdisplayloc{}{page}{glsnumberformat}{1}}
\@gls@reference{acronym}{ga}{\glsnoidxdisplayloc{}{page}{glsnumberformat}{1}}
\@writefile{toc}{\contentsline {section}{\numberline {3}Běh programu}{1}{section.3}\protected@file@percent }
\@writefile{toc}{\contentsline {section}{\numberline {4}Implementace}{1}{section.4}\protected@file@percent }
\@gls@reference{acronym}{ann}{\glsnoidxdisplayloc{}{page}{glsnumberformat}{1}}
\BKM@entry{id=5,dest={73656374696F6E2E35},srcline={96}}{5C3337365C3337375C3030305A5C3030305C3334315C303030765C3030315C3033335C30303072}
\citation{python_awesome_2018}
\citation{choudhury_2021}
\citation{korolev_2017}
\bibdata{./reference}
\bibcite{python_awesome_2018}{{1}{}{{}}{{}}}
\bibcite{choudhury_2021}{{2}{}{{}}{{}}}
\bibcite{korolev_2017}{{3}{}{{}}{{}}}
\providecommand\NAT@force@numbers{}\NAT@force@numbers
\@writefile{toc}{\contentsline {section}{\numberline {5}Závěr}{2}{section.5}\protected@file@percent }
\gdef \@abspage@last{2}
