digraph "ChoiceAnswer.h"
{
  edge [fontname="Helvetica",fontsize="10",labelfontname="Helvetica",labelfontsize="10"];
  node [fontname="Helvetica",fontsize="10",shape=record];
  Node6 [label="ChoiceAnswer.h",height=0.2,width=0.4,color="black", fillcolor="grey75", style="filled", fontcolor="black"];
  Node6 -> Node7 [dir="back",color="midnightblue",fontsize="10",style="solid",fontname="Helvetica"];
  Node7 [label="ChoiceQuestion.h",height=0.2,width=0.4,color="black", fillcolor="white", style="filled",URL="$ChoiceQuestion_8h.html"];
  Node7 -> Node8 [dir="back",color="midnightblue",fontsize="10",style="solid",fontname="Helvetica"];
  Node8 [label="Section.h",height=0.2,width=0.4,color="black", fillcolor="white", style="filled",URL="$Section_8h.html"];
  Node8 -> Node9 [dir="back",color="midnightblue",fontsize="10",style="solid",fontname="Helvetica"];
  Node9 [label="Quiz.h",height=0.2,width=0.4,color="black", fillcolor="white", style="filled",URL="$Quiz_8h.html"];
  Node9 -> Node10 [dir="back",color="midnightblue",fontsize="10",style="solid",fontname="Helvetica"];
  Node10 [label="XMLParser.h",height=0.2,width=0.4,color="black", fillcolor="white", style="filled",URL="$XMLParser_8h.html"];
  Node10 -> Node11 [dir="back",color="midnightblue",fontsize="10",style="solid",fontname="Helvetica"];
  Node11 [label="Engine.h",height=0.2,width=0.4,color="black", fillcolor="white", style="filled",URL="$Engine_8h.html",tooltip="Quiz Engine. "];
  Node11 -> Node12 [dir="back",color="midnightblue",fontsize="10",style="solid",fontname="Helvetica"];
  Node12 [label="Menu.h",height=0.2,width=0.4,color="black", fillcolor="white", style="filled",URL="$Menu_8h.html"];
  Node12 -> Node11 [dir="back",color="midnightblue",fontsize="10",style="solid",fontname="Helvetica"];
  Node12 -> Node13 [dir="back",color="midnightblue",fontsize="10",style="solid",fontname="Helvetica"];
  Node13 [label="Menu.cpp",height=0.2,width=0.4,color="black", fillcolor="white", style="filled",URL="$Menu_8cpp.html"];
  Node11 -> Node14 [dir="back",color="midnightblue",fontsize="10",style="solid",fontname="Helvetica"];
  Node14 [label="QuizMaker.h",height=0.2,width=0.4,color="black", fillcolor="white", style="filled",URL="$QuizMaker_8h.html"];
  Node14 -> Node11 [dir="back",color="midnightblue",fontsize="10",style="solid",fontname="Helvetica"];
  Node14 -> Node15 [dir="back",color="midnightblue",fontsize="10",style="solid",fontname="Helvetica"];
  Node15 [label="QuizMaker.cpp",height=0.2,width=0.4,color="black", fillcolor="white", style="filled",URL="$QuizMaker_8cpp.html"];
  Node11 -> Node16 [dir="back",color="midnightblue",fontsize="10",style="solid",fontname="Helvetica"];
  Node16 [label="QuizRunner.h",height=0.2,width=0.4,color="black", fillcolor="white", style="filled",URL="$QuizRunner_8h.html"];
  Node16 -> Node11 [dir="back",color="midnightblue",fontsize="10",style="solid",fontname="Helvetica"];
  Node16 -> Node17 [dir="back",color="midnightblue",fontsize="10",style="solid",fontname="Helvetica"];
  Node17 [label="QuizRunner.cpp",height=0.2,width=0.4,color="black", fillcolor="white", style="filled",URL="$QuizRunner_8cpp.html"];
  Node11 -> Node18 [dir="back",color="midnightblue",fontsize="10",style="solid",fontname="Helvetica"];
  Node18 [label="Engine.cpp",height=0.2,width=0.4,color="black", fillcolor="white", style="filled",URL="$Engine_8cpp.html"];
  Node10 -> Node14 [dir="back",color="midnightblue",fontsize="10",style="solid",fontname="Helvetica"];
  Node10 -> Node19 [dir="back",color="midnightblue",fontsize="10",style="solid",fontname="Helvetica"];
  Node19 [label="XMLParser.cpp",height=0.2,width=0.4,color="black", fillcolor="white", style="filled",URL="$XMLParser_8cpp.html"];
  Node9 -> Node14 [dir="back",color="midnightblue",fontsize="10",style="solid",fontname="Helvetica"];
  Node9 -> Node20 [dir="back",color="midnightblue",fontsize="10",style="solid",fontname="Helvetica"];
  Node20 [label="Quiz.cpp",height=0.2,width=0.4,color="black", fillcolor="white", style="filled",URL="$Quiz_8cpp.html"];
  Node8 -> Node21 [dir="back",color="midnightblue",fontsize="10",style="solid",fontname="Helvetica"];
  Node21 [label="Section.cpp",height=0.2,width=0.4,color="black", fillcolor="white", style="filled",URL="$Section_8cpp.html"];
  Node7 -> Node10 [dir="back",color="midnightblue",fontsize="10",style="solid",fontname="Helvetica"];
  Node7 -> Node14 [dir="back",color="midnightblue",fontsize="10",style="solid",fontname="Helvetica"];
  Node7 -> Node22 [dir="back",color="midnightblue",fontsize="10",style="solid",fontname="Helvetica"];
  Node22 [label="ChoiceQuestion.cpp",height=0.2,width=0.4,color="black", fillcolor="white", style="filled",URL="$ChoiceQuestion_8cpp.html"];
}
