digraph "MultipleChoiceQuestion"
{
  edge [fontname="Helvetica",fontsize="10",labelfontname="Helvetica",labelfontsize="10"];
  node [fontname="Helvetica",fontsize="10",shape=record];
  Node0 [label="MultipleChoiceQuestion",height=0.2,width=0.4,color="black", fillcolor="grey75", style="filled", fontcolor="black"];
  Node1 -> Node0 [dir="back",color="midnightblue",fontsize="10",style="solid",fontname="Helvetica"];
  Node1 [label="Question",height=0.2,width=0.4,color="black", fillcolor="white", style="filled",URL="$classQuestion.html",tooltip="Question is structure that holds text of the question and points for correct answer/s. "];
  Node2 -> Node1 [dir="back",color="midnightblue",fontsize="10",style="solid",fontname="Helvetica"];
  Node2 [label="IXMLConvertible",height=0.2,width=0.4,color="black", fillcolor="white", style="filled",URL="$classIXMLConvertible.html",tooltip="IXMLConvertible represents object that can be parsed into XML structure. "];
}
