digraph "Question"
{
  edge [fontname="Helvetica",fontsize="10",labelfontname="Helvetica",labelfontsize="10"];
  node [fontname="Helvetica",fontsize="10",shape=record];
  Node0 [label="Question",height=0.2,width=0.4,color="black", fillcolor="grey75", style="filled", fontcolor="black"];
  Node1 -> Node0 [dir="back",color="midnightblue",fontsize="10",style="solid",fontname="Helvetica"];
  Node1 [label="IXMLConvertible",height=0.2,width=0.4,color="black", fillcolor="white", style="filled",URL="$classIXMLConvertible.html",tooltip="IXMLConvertible represents object that can be parsed into XML structure. "];
  Node0 -> Node2 [dir="back",color="midnightblue",fontsize="10",style="solid",fontname="Helvetica"];
  Node2 [label="ChoiceQuestion",height=0.2,width=0.4,color="black", fillcolor="white", style="filled",URL="$classChoiceQuestion.html",tooltip="ChoiceQuestion represents question from which user can jump in quiz. Also can be question with one co..."];
  Node0 -> Node3 [dir="back",color="midnightblue",fontsize="10",style="solid",fontname="Helvetica"];
  Node3 [label="MultipleChoiceQuestion",height=0.2,width=0.4,color="black", fillcolor="white", style="filled",URL="$classMultipleChoiceQuestion.html",tooltip="MultipleChoiceQuestion represents question which can have multiple correct answers. "];
  Node0 -> Node4 [dir="back",color="midnightblue",fontsize="10",style="solid",fontname="Helvetica"];
  Node4 [label="TextQuestion",height=0.2,width=0.4,color="black", fillcolor="white", style="filled",URL="$classTextQuestion.html",tooltip="TextQuestion represents question which requires just text answer. "];
}
