digraph "ChoiceAnswer"
{
  edge [fontname="Helvetica",fontsize="10",labelfontname="Helvetica",labelfontsize="10"];
  node [fontname="Helvetica",fontsize="10",shape=record];
  Node3 [label="ChoiceAnswer",height=0.2,width=0.4,color="black", fillcolor="grey75", style="filled", fontcolor="black"];
  Node4 -> Node3 [dir="back",color="midnightblue",fontsize="10",style="solid",fontname="Helvetica"];
  Node4 [label="Answer",height=0.2,width=0.4,color="black", fillcolor="white", style="filled",URL="$classAnswer.html",tooltip="Represents structure which holds text of the answer and points for the answer. "];
  Node5 -> Node4 [dir="back",color="midnightblue",fontsize="10",style="solid",fontname="Helvetica"];
  Node5 [label="IXMLConvertible",height=0.2,width=0.4,color="black", fillcolor="white", style="filled",URL="$classIXMLConvertible.html",tooltip="IXMLConvertible represents object that can be parsed into XML structure. "];
}
