digraph "QuizRunner"
{
  edge [fontname="Helvetica",fontsize="10",labelfontname="Helvetica",labelfontsize="10"];
  node [fontname="Helvetica",fontsize="10",shape=record];
  Node1 [label="QuizRunner",height=0.2,width=0.4,color="black", fillcolor="grey75", style="filled", fontcolor="black"];
  Node2 -> Node1 [dir="back",color="darkorchid3",fontsize="10",style="dashed",label=" xmlParser" ,fontname="Helvetica"];
  Node2 [label="XMLParser",height=0.2,width=0.4,color="black", fillcolor="white", style="filled",URL="$classXMLParser.html",tooltip="XMLParser transforms quizzes to XML and loads them from .xml files. "];
  Node3 -> Node1 [dir="back",color="darkorchid3",fontsize="10",style="dashed",label=" quiz" ,fontname="Helvetica"];
  Node3 [label="Quiz",height=0.2,width=0.4,color="black", fillcolor="white", style="filled",URL="$classQuiz.html",tooltip="Quiz represents a structure of questions in specific area. "];
}
