digraph "Menu.h"
{
  edge [fontname="Helvetica",fontsize="10",labelfontname="Helvetica",labelfontsize="10"];
  node [fontname="Helvetica",fontsize="10",shape=record];
  Node29 [label="Menu.h",height=0.2,width=0.4,color="black", fillcolor="grey75", style="filled", fontcolor="black"];
  Node29 -> Node30 [dir="back",color="midnightblue",fontsize="10",style="solid",fontname="Helvetica"];
  Node30 [label="Engine.h",height=0.2,width=0.4,color="black", fillcolor="white", style="filled",URL="$Engine_8h.html",tooltip="Quiz Engine. "];
  Node30 -> Node29 [dir="back",color="midnightblue",fontsize="10",style="solid",fontname="Helvetica"];
  Node30 -> Node31 [dir="back",color="midnightblue",fontsize="10",style="solid",fontname="Helvetica"];
  Node31 [label="QuizMaker.h",height=0.2,width=0.4,color="black", fillcolor="white", style="filled",URL="$QuizMaker_8h.html"];
  Node31 -> Node30 [dir="back",color="midnightblue",fontsize="10",style="solid",fontname="Helvetica"];
  Node31 -> Node32 [dir="back",color="midnightblue",fontsize="10",style="solid",fontname="Helvetica"];
  Node32 [label="QuizMaker.cpp",height=0.2,width=0.4,color="black", fillcolor="white", style="filled",URL="$QuizMaker_8cpp.html"];
  Node30 -> Node33 [dir="back",color="midnightblue",fontsize="10",style="solid",fontname="Helvetica"];
  Node33 [label="QuizRunner.h",height=0.2,width=0.4,color="black", fillcolor="white", style="filled",URL="$QuizRunner_8h.html"];
  Node33 -> Node30 [dir="back",color="midnightblue",fontsize="10",style="solid",fontname="Helvetica"];
  Node33 -> Node34 [dir="back",color="midnightblue",fontsize="10",style="solid",fontname="Helvetica"];
  Node34 [label="QuizRunner.cpp",height=0.2,width=0.4,color="black", fillcolor="white", style="filled",URL="$QuizRunner_8cpp.html"];
  Node30 -> Node35 [dir="back",color="midnightblue",fontsize="10",style="solid",fontname="Helvetica"];
  Node35 [label="Engine.cpp",height=0.2,width=0.4,color="black", fillcolor="white", style="filled",URL="$Engine_8cpp.html"];
  Node29 -> Node36 [dir="back",color="midnightblue",fontsize="10",style="solid",fontname="Helvetica"];
  Node36 [label="Menu.cpp",height=0.2,width=0.4,color="black", fillcolor="white", style="filled",URL="$Menu_8cpp.html"];
}
