digraph "Question.h"
{
  edge [fontname="Helvetica",fontsize="10",labelfontname="Helvetica",labelfontsize="10"];
  node [fontname="Helvetica",fontsize="10",shape=record];
  Node11 [label="Question.h",height=0.2,width=0.4,color="black", fillcolor="grey75", style="filled", fontcolor="black"];
  Node11 -> Node12 [dir="back",color="midnightblue",fontsize="10",style="solid",fontname="Helvetica"];
  Node12 [label="ChoiceQuestion.h",height=0.2,width=0.4,color="black", fillcolor="white", style="filled",URL="$ChoiceQuestion_8h.html"];
  Node12 -> Node13 [dir="back",color="midnightblue",fontsize="10",style="solid",fontname="Helvetica"];
  Node13 [label="Section.h",height=0.2,width=0.4,color="black", fillcolor="white", style="filled",URL="$Section_8h.html"];
  Node13 -> Node14 [dir="back",color="midnightblue",fontsize="10",style="solid",fontname="Helvetica"];
  Node14 [label="Quiz.h",height=0.2,width=0.4,color="black", fillcolor="white", style="filled",URL="$Quiz_8h.html"];
  Node14 -> Node15 [dir="back",color="midnightblue",fontsize="10",style="solid",fontname="Helvetica"];
  Node15 [label="XMLParser.h",height=0.2,width=0.4,color="black", fillcolor="white", style="filled",URL="$XMLParser_8h.html"];
  Node15 -> Node16 [dir="back",color="midnightblue",fontsize="10",style="solid",fontname="Helvetica"];
  Node16 [label="Engine.h",height=0.2,width=0.4,color="black", fillcolor="white", style="filled",URL="$Engine_8h.html",tooltip="Quiz Engine. "];
  Node16 -> Node17 [dir="back",color="midnightblue",fontsize="10",style="solid",fontname="Helvetica"];
  Node17 [label="Menu.h",height=0.2,width=0.4,color="black", fillcolor="white", style="filled",URL="$Menu_8h.html"];
  Node17 -> Node16 [dir="back",color="midnightblue",fontsize="10",style="solid",fontname="Helvetica"];
  Node17 -> Node18 [dir="back",color="midnightblue",fontsize="10",style="solid",fontname="Helvetica"];
  Node18 [label="Menu.cpp",height=0.2,width=0.4,color="black", fillcolor="white", style="filled",URL="$Menu_8cpp.html"];
  Node16 -> Node19 [dir="back",color="midnightblue",fontsize="10",style="solid",fontname="Helvetica"];
  Node19 [label="QuizMaker.h",height=0.2,width=0.4,color="black", fillcolor="white", style="filled",URL="$QuizMaker_8h.html"];
  Node19 -> Node16 [dir="back",color="midnightblue",fontsize="10",style="solid",fontname="Helvetica"];
  Node19 -> Node20 [dir="back",color="midnightblue",fontsize="10",style="solid",fontname="Helvetica"];
  Node20 [label="QuizMaker.cpp",height=0.2,width=0.4,color="black", fillcolor="white", style="filled",URL="$QuizMaker_8cpp.html"];
  Node16 -> Node21 [dir="back",color="midnightblue",fontsize="10",style="solid",fontname="Helvetica"];
  Node21 [label="QuizRunner.h",height=0.2,width=0.4,color="black", fillcolor="white", style="filled",URL="$QuizRunner_8h.html"];
  Node21 -> Node16 [dir="back",color="midnightblue",fontsize="10",style="solid",fontname="Helvetica"];
  Node21 -> Node22 [dir="back",color="midnightblue",fontsize="10",style="solid",fontname="Helvetica"];
  Node22 [label="QuizRunner.cpp",height=0.2,width=0.4,color="black", fillcolor="white", style="filled",URL="$QuizRunner_8cpp.html"];
  Node16 -> Node23 [dir="back",color="midnightblue",fontsize="10",style="solid",fontname="Helvetica"];
  Node23 [label="Engine.cpp",height=0.2,width=0.4,color="black", fillcolor="white", style="filled",URL="$Engine_8cpp.html"];
  Node15 -> Node19 [dir="back",color="midnightblue",fontsize="10",style="solid",fontname="Helvetica"];
  Node15 -> Node24 [dir="back",color="midnightblue",fontsize="10",style="solid",fontname="Helvetica"];
  Node24 [label="XMLParser.cpp",height=0.2,width=0.4,color="black", fillcolor="white", style="filled",URL="$XMLParser_8cpp.html"];
  Node14 -> Node19 [dir="back",color="midnightblue",fontsize="10",style="solid",fontname="Helvetica"];
  Node14 -> Node25 [dir="back",color="midnightblue",fontsize="10",style="solid",fontname="Helvetica"];
  Node25 [label="Quiz.cpp",height=0.2,width=0.4,color="black", fillcolor="white", style="filled",URL="$Quiz_8cpp.html"];
  Node13 -> Node26 [dir="back",color="midnightblue",fontsize="10",style="solid",fontname="Helvetica"];
  Node26 [label="Section.cpp",height=0.2,width=0.4,color="black", fillcolor="white", style="filled",URL="$Section_8cpp.html"];
  Node12 -> Node15 [dir="back",color="midnightblue",fontsize="10",style="solid",fontname="Helvetica"];
  Node12 -> Node19 [dir="back",color="midnightblue",fontsize="10",style="solid",fontname="Helvetica"];
  Node12 -> Node27 [dir="back",color="midnightblue",fontsize="10",style="solid",fontname="Helvetica"];
  Node27 [label="ChoiceQuestion.cpp",height=0.2,width=0.4,color="black", fillcolor="white", style="filled",URL="$ChoiceQuestion_8cpp.html"];
  Node11 -> Node13 [dir="back",color="midnightblue",fontsize="10",style="solid",fontname="Helvetica"];
  Node11 -> Node28 [dir="back",color="midnightblue",fontsize="10",style="solid",fontname="Helvetica"];
  Node28 [label="TextQuestion.h",height=0.2,width=0.4,color="black", fillcolor="white", style="filled",URL="$TextQuestion_8h.html"];
  Node28 -> Node15 [dir="back",color="midnightblue",fontsize="10",style="solid",fontname="Helvetica"];
  Node28 -> Node19 [dir="back",color="midnightblue",fontsize="10",style="solid",fontname="Helvetica"];
  Node28 -> Node29 [dir="back",color="midnightblue",fontsize="10",style="solid",fontname="Helvetica"];
  Node29 [label="TextQuestion.cpp",height=0.2,width=0.4,color="black", fillcolor="white", style="filled",URL="$TextQuestion_8cpp.html"];
  Node11 -> Node30 [dir="back",color="midnightblue",fontsize="10",style="solid",fontname="Helvetica"];
  Node30 [label="MultipleChoiceQuestion.h",height=0.2,width=0.4,color="black", fillcolor="white", style="filled",URL="$MultipleChoiceQuestion_8h.html"];
  Node30 -> Node15 [dir="back",color="midnightblue",fontsize="10",style="solid",fontname="Helvetica"];
  Node30 -> Node19 [dir="back",color="midnightblue",fontsize="10",style="solid",fontname="Helvetica"];
  Node30 -> Node31 [dir="back",color="midnightblue",fontsize="10",style="solid",fontname="Helvetica"];
  Node31 [label="MultipleChoiceQuestion.cpp",height=0.2,width=0.4,color="black", fillcolor="white", style="filled",URL="$MultipleChoiceQuestion_8cpp.html"];
  Node11 -> Node19 [dir="back",color="midnightblue",fontsize="10",style="solid",fontname="Helvetica"];
}
