digraph "TextQuestion.h"
{
  edge [fontname="Helvetica",fontsize="10",labelfontname="Helvetica",labelfontsize="10"];
  node [fontname="Helvetica",fontsize="10",shape=record];
  Node13 [label="TextQuestion.h",height=0.2,width=0.4,color="black", fillcolor="grey75", style="filled", fontcolor="black"];
  Node13 -> Node14 [dir="back",color="midnightblue",fontsize="10",style="solid",fontname="Helvetica"];
  Node14 [label="XMLParser.h",height=0.2,width=0.4,color="black", fillcolor="white", style="filled",URL="$XMLParser_8h.html"];
  Node14 -> Node15 [dir="back",color="midnightblue",fontsize="10",style="solid",fontname="Helvetica"];
  Node15 [label="Engine.h",height=0.2,width=0.4,color="black", fillcolor="white", style="filled",URL="$Engine_8h.html",tooltip="Quiz Engine. "];
  Node15 -> Node16 [dir="back",color="midnightblue",fontsize="10",style="solid",fontname="Helvetica"];
  Node16 [label="Menu.h",height=0.2,width=0.4,color="black", fillcolor="white", style="filled",URL="$Menu_8h.html"];
  Node16 -> Node15 [dir="back",color="midnightblue",fontsize="10",style="solid",fontname="Helvetica"];
  Node16 -> Node17 [dir="back",color="midnightblue",fontsize="10",style="solid",fontname="Helvetica"];
  Node17 [label="Menu.cpp",height=0.2,width=0.4,color="black", fillcolor="white", style="filled",URL="$Menu_8cpp.html"];
  Node15 -> Node18 [dir="back",color="midnightblue",fontsize="10",style="solid",fontname="Helvetica"];
  Node18 [label="QuizMaker.h",height=0.2,width=0.4,color="black", fillcolor="white", style="filled",URL="$QuizMaker_8h.html"];
  Node18 -> Node15 [dir="back",color="midnightblue",fontsize="10",style="solid",fontname="Helvetica"];
  Node18 -> Node19 [dir="back",color="midnightblue",fontsize="10",style="solid",fontname="Helvetica"];
  Node19 [label="QuizMaker.cpp",height=0.2,width=0.4,color="black", fillcolor="white", style="filled",URL="$QuizMaker_8cpp.html"];
  Node15 -> Node20 [dir="back",color="midnightblue",fontsize="10",style="solid",fontname="Helvetica"];
  Node20 [label="QuizRunner.h",height=0.2,width=0.4,color="black", fillcolor="white", style="filled",URL="$QuizRunner_8h.html"];
  Node20 -> Node15 [dir="back",color="midnightblue",fontsize="10",style="solid",fontname="Helvetica"];
  Node20 -> Node21 [dir="back",color="midnightblue",fontsize="10",style="solid",fontname="Helvetica"];
  Node21 [label="QuizRunner.cpp",height=0.2,width=0.4,color="black", fillcolor="white", style="filled",URL="$QuizRunner_8cpp.html"];
  Node15 -> Node22 [dir="back",color="midnightblue",fontsize="10",style="solid",fontname="Helvetica"];
  Node22 [label="Engine.cpp",height=0.2,width=0.4,color="black", fillcolor="white", style="filled",URL="$Engine_8cpp.html"];
  Node14 -> Node18 [dir="back",color="midnightblue",fontsize="10",style="solid",fontname="Helvetica"];
  Node14 -> Node23 [dir="back",color="midnightblue",fontsize="10",style="solid",fontname="Helvetica"];
  Node23 [label="XMLParser.cpp",height=0.2,width=0.4,color="black", fillcolor="white", style="filled",URL="$XMLParser_8cpp.html"];
  Node13 -> Node18 [dir="back",color="midnightblue",fontsize="10",style="solid",fontname="Helvetica"];
  Node13 -> Node24 [dir="back",color="midnightblue",fontsize="10",style="solid",fontname="Helvetica"];
  Node24 [label="TextQuestion.cpp",height=0.2,width=0.4,color="black", fillcolor="white", style="filled",URL="$TextQuestion_8cpp.html"];
}
