digraph "XMLParser.h"
{
  edge [fontname="Helvetica",fontsize="10",labelfontname="Helvetica",labelfontsize="10"];
  node [fontname="Helvetica",fontsize="10",shape=record];
  Node23 [label="XMLParser.h",height=0.2,width=0.4,color="black", fillcolor="grey75", style="filled", fontcolor="black"];
  Node23 -> Node24 [dir="back",color="midnightblue",fontsize="10",style="solid",fontname="Helvetica"];
  Node24 [label="Engine.h",height=0.2,width=0.4,color="black", fillcolor="white", style="filled",URL="$Engine_8h.html",tooltip="Quiz Engine. "];
  Node24 -> Node25 [dir="back",color="midnightblue",fontsize="10",style="solid",fontname="Helvetica"];
  Node25 [label="Menu.h",height=0.2,width=0.4,color="black", fillcolor="white", style="filled",URL="$Menu_8h.html"];
  Node25 -> Node24 [dir="back",color="midnightblue",fontsize="10",style="solid",fontname="Helvetica"];
  Node25 -> Node26 [dir="back",color="midnightblue",fontsize="10",style="solid",fontname="Helvetica"];
  Node26 [label="Menu.cpp",height=0.2,width=0.4,color="black", fillcolor="white", style="filled",URL="$Menu_8cpp.html"];
  Node24 -> Node27 [dir="back",color="midnightblue",fontsize="10",style="solid",fontname="Helvetica"];
  Node27 [label="QuizMaker.h",height=0.2,width=0.4,color="black", fillcolor="white", style="filled",URL="$QuizMaker_8h.html"];
  Node27 -> Node24 [dir="back",color="midnightblue",fontsize="10",style="solid",fontname="Helvetica"];
  Node27 -> Node28 [dir="back",color="midnightblue",fontsize="10",style="solid",fontname="Helvetica"];
  Node28 [label="QuizMaker.cpp",height=0.2,width=0.4,color="black", fillcolor="white", style="filled",URL="$QuizMaker_8cpp.html"];
  Node24 -> Node29 [dir="back",color="midnightblue",fontsize="10",style="solid",fontname="Helvetica"];
  Node29 [label="QuizRunner.h",height=0.2,width=0.4,color="black", fillcolor="white", style="filled",URL="$QuizRunner_8h.html"];
  Node29 -> Node24 [dir="back",color="midnightblue",fontsize="10",style="solid",fontname="Helvetica"];
  Node29 -> Node30 [dir="back",color="midnightblue",fontsize="10",style="solid",fontname="Helvetica"];
  Node30 [label="QuizRunner.cpp",height=0.2,width=0.4,color="black", fillcolor="white", style="filled",URL="$QuizRunner_8cpp.html"];
  Node24 -> Node31 [dir="back",color="midnightblue",fontsize="10",style="solid",fontname="Helvetica"];
  Node31 [label="Engine.cpp",height=0.2,width=0.4,color="black", fillcolor="white", style="filled",URL="$Engine_8cpp.html"];
  Node23 -> Node27 [dir="back",color="midnightblue",fontsize="10",style="solid",fontname="Helvetica"];
  Node23 -> Node32 [dir="back",color="midnightblue",fontsize="10",style="solid",fontname="Helvetica"];
  Node32 [label="XMLParser.cpp",height=0.2,width=0.4,color="black", fillcolor="white", style="filled",URL="$XMLParser_8cpp.html"];
}
