digraph "Graphical Class Hierarchy"
{
  edge [fontname="Helvetica",fontsize="10",labelfontname="Helvetica",labelfontsize="10"];
  node [fontname="Helvetica",fontsize="10",shape=record];
  rankdir="LR";
  Node0 [label="Answer",height=0.2,width=0.4,color="black", fillcolor="white", style="filled",URL="$classAnswer.html"];
  Node0 -> Node1 [dir="back",color="midnightblue",fontsize="10",style="solid",fontname="Helvetica"];
  Node1 [label="ChoiceAnswer",height=0.2,width=0.4,color="black", fillcolor="white", style="filled",URL="$classChoiceAnswer.html"];
}
