digraph "Graphical Class Hierarchy"
{
  edge [fontname="Helvetica",fontsize="10",labelfontname="Helvetica",labelfontsize="10"];
  node [fontname="Helvetica",fontsize="10",shape=record];
  rankdir="LR";
  Node0 [label="Question",height=0.2,width=0.4,color="black", fillcolor="white", style="filled",URL="$classQuestion.html"];
  Node0 -> Node1 [dir="back",color="midnightblue",fontsize="10",style="solid",fontname="Helvetica"];
  Node1 [label="ChoiceQuestion",height=0.2,width=0.4,color="black", fillcolor="white", style="filled",URL="$classChoiceQuestion.html"];
  Node0 -> Node2 [dir="back",color="midnightblue",fontsize="10",style="solid",fontname="Helvetica"];
  Node2 [label="MultipleChoiceQuestion",height=0.2,width=0.4,color="black", fillcolor="white", style="filled",URL="$classMultipleChoiceQuestion.html"];
  Node0 -> Node3 [dir="back",color="midnightblue",fontsize="10",style="solid",fontname="Helvetica"];
  Node3 [label="TextQuestion",height=0.2,width=0.4,color="black", fillcolor="white", style="filled",URL="$classTextQuestion.html"];
}
