digraph "ChoiceAnswer"
{
  edge [fontname="Helvetica",fontsize="10",labelfontname="Helvetica",labelfontsize="10"];
  node [fontname="Helvetica",fontsize="10",shape=record];
  Node0 [label="ChoiceAnswer",height=0.2,width=0.4,color="black", fillcolor="grey75", style="filled", fontcolor="black"];
  Node1 -> Node0 [dir="back",color="midnightblue",fontsize="10",style="solid"];
  Node1 [label="Answer",height=0.2,width=0.4,color="black", fillcolor="white", style="filled",URL="$classAnswer.html"];
}
